R 語言的 50 + 練習：統計分析的前哨站
…
分組聚合欄位：使用 dplyr 套件的 group_by() 函數與 summarise() 函數

movies |>
  dplyr::group_by(release_year) |>
  dplyr::summarise(mean_rating = mean(rating))

# A tibble: 85 × 2
   release_year mean_rating
          <int>       <dbl>
 1         1921         8.3
 2         1924         8.2
 3         1925         8.2
 4         1926         8.1
 5         1927         8.3
 6         1928         8.1
 7         1931         8.4
 8         1934         8.1
 9         1936         8.5
10         1939         8.1
# … with 75 more rows
…
使用 dplyr 套件的 group_by() 函數與 summarise() 函數分組聚合欄位

以國家區域分組、加總確診人數與死亡人數、以死亡人數遞減排序。

daily_report |>
  dplyr::group_by(Country_Region) |>
  dplyr::summarise(Confirmed = sum(Confirmed),
                   Deaths = sum(Deaths)) |>
  dplyr::arrange(desc(Deaths))

# A tibble: 201 × 3
   Country_Region Confirmed  Deaths
   <chr>              <int>   <int>
 1 US              95713363 1053840
 2 Brazil          34592163  685424
 3 India           44543089  528370
 4 Russia          20192164  378324
 5 Mexico           7069764  329895
 6 Peru             4132687  216309
 7 United Kingdom  23803311  207189
 8 Italy           22169273  176609
 9 Indonesia        6410426  157915
10 France          35138509  155783
# … with 191 more rows
…
\[
\text{Case Fatality Ratio} = \frac{\text{Deaths}}{\text{Confirmed}}
\]

以國家區域分組、加總確診人數與死亡人數、衍生計算確診死亡率、剔除比例大於 1 的不合理資料、以確診死亡率遞減排序。

daily_report |>
  dplyr::group_by(Country_Region) |>
  dplyr::summarise(Confirmed = sum(Confirmed),
                   Deaths = sum(Deaths)) |>
  dplyr::mutate(Case_Fatality_Ratio = Deaths / Confirmed) |>
  dplyr::filter(Case_Fatality_Ratio <= 1) |>
  dplyr::arrange(desc(Case_Fatality_Ratio))

# A tibble: 200 × 4
   Country_Region         Confirmed Deaths Case_Fatality_Ratio
   <chr>                      <int>  <int>               <dbl>
 1 MS Zaandam                     9      2              0.222 
 2 Yemen                      11932   2155              0.181 
 3 Sudan                      63285   4961              0.0784
 4 Syria                      57227   3163              0.0553
 5 Peru                     4132687 216309              0.0523
 6 Somalia                    27207   1361              0.0500
 7 Egypt                     515645  24797              0.0481
 8 Mexico                   7069764 329895              0.0467
 9 Bosnia and Herzegovina    397822  16108              0.0405
10 Afghanistan               197434   7796              0.0395
# … with 190 more rows
…
